{
  "status": "OK",
  "statusCode": 200,
  "data": {
    "content": [
      {
        "createdAt": 1761233880960,
        "createdBy": 16,
        "updatedAt": 1761233881557,
        "updatedBy": 16,
        "id": "e53f9e90-036d-41aa-8272-0d2e5dcb2de6",
        "operation": "SALE",
        "aid": "A0000000031010",
        "amount": 20.0,
        "grossTotal": 20.0,
        "subTotal": 20.0,
        "entryMode": "CHIP",
        "arqc": "****EB0E",
        "authCode": null,
        "cardNumber": "****1607",
        "cardIssuerBank": "SCOTIABANK INVERLAT,",
        "cardIssuerBrand": "VISA",
        "cardType": "CREDIT",
        "currency": "484",
        "date": 1761233880944,
        "responseMessage": "Procesador no disponible",
        "subMerchantId": 21,
        "merchantId": 20,
        "posId": "01610060202309270181",
        "cashierId": "16",
        "userId": 16,
        "providerMerchantId": "5432122",
        "originalNumber": "2125102309380000423",
        "posName": "01610060202309270181",
        "saleType": "CONTADO",
        "clientReference": "2125102309380000423",
        "status": "DECLINED",
        "commission": 0.58,
        "commissionRate": 2.9,
        "commissionMsiRate": null,
        "iva": 0.09,
        "terminalId": "01610060202309270181",
        "total": 19.32,
        "bin": "491872",
        "cardCountry": "Mexico",
        "commissionMsi": null,
        "subMerchant": {
          "createdAt": 1741674434161,
          "createdBy": 1,
          "updatedAt": 1741674434161,
          "updatedBy": 1,
          "id": 21,
          "merchant": {
            "createdAt": 1741674434149,
            "createdBy": 1,
            "updatedAt": 1751672374735,
            "updatedBy": 1,
            "id": 20,
            "name": "Grupo orsan",
            "amexId": null,
            "enabled": true,
            "activated": true,
            "webhook": "1",
            "webhookEnabled": false,
            "token": null,
            "validateAmount": true,
            "maxAmount": null,
            "urlLogo": "https://github.com/Billysanzem/paymind-docs/raw/main/Grupo_Ethos_Pay-1%20(1).pngz",
            "clientId": null,
            "address": {
              "street": "Av. Lazaro cardenaz 3804 ",
              "state": "Nuevo Leon",
              "phone": "2412345678",
              "comment": null,
              "exteriorNumber": null,
              "interiorNumber": null,
              "neighborhoods": "Cumbres",
              "districts": "Monterrey",
              "locationLatitude": 37.7749,
              "locationLongitude": -122.4194,
              "zipCode": "64930",
              "neighborhood": null,
              "district": null,
              "stateMx": null,
              "merchantId": 20
            },
            "fiscalAccount": {
              "merchantId": 20,
              "account": "JSZ101194HMWESS",
              "ownerName": "Jhon",
              "merchantCategoryCode": 5542,
              "ownerLastName": "Doe",
              "cityName": "Monterrey",
              "stateName": "NUEVO LEON",
              "streetAddress": "Av. Lazaro cardenaz 3804",
              "postalCode": "64930",
              "ownerDateOfBirth": "1994/07/09",
              "businessName": "Gasolinera",
              "ownerMail": "orsan@hotmail.com",
              "merchantCategoryAmex": 0,
              "accountBank": {
                "merchantId": 20,
                "account": "123456789987654322",
                "bankName": "BANK OF CHINA"
              }
            }
          },
          "merchantId": 20,
          "name": "Dominio cumbres",
          "address": {
            "street": "Av. prueba real 7560 ",
            "state": "NUEVO LEON",
            "phone": "12312",
            "comment": "",
            "exteriorNumber": "",
            "interiorNumber": "",
            "neighborhoods": "La primavera ",
            "districts": "Monterrey",
            "locationLatitude": 37.7749,
            "locationLongitude": -122.4194,
            "zipCode": "64830",
            "neighborhood": {
              "id": 1,
              "neighborhoodId": 1,
              "neighborhoodName": "JOSEFA ZOZAYA",
              "district": {
                "id": 1,
                "districtId": 1,
                "districtName": "GARCIA"
              },
              "stateMx": {
                "stateName": "NUEVO LEON",
                "id": 1
              }
            },
            "district": {
              "id": 1,
              "districtId": 1,
              "districtName": "GARCIA"
            },
            "stateMx": {
              "stateName": "NUEVO LEON",
              "id": 1
            },
            "subMerchantId": 21
          },
          "enabled": true,
          "activated": true,
          "idMit": null,
          "contactName": "Jhon Doe",
          "contactEmail": "orsan@hotmail.com",
          "allowWhatsapp": true,
          "billingUr": "https://mifactura.orsan.com.mx/#/login-form\"",
          "maxAmount": 5000.0,
          "billable": true
        },
        "pos": {
          "createdAt": 1738784715387,
          "createdBy": 1,
          "updatedAt": 1753957348810,
          "updatedBy": 1,
          "id": "01610060202309270181",
          "subMerchantId": 21,
          "modelChip": "D60",
          "numberChip": "895202",
          "chipBrand": "PAX",
          "name": "01610060202309270181",
          "active": true,
          "encryptionMethod": "CBC"
        },
        "user": {
          "createdAt": 1749056647275,
          "createdBy": 1,
          "updatedAt": 1761170196964,
          "updatedBy": 1,
          "id": 16,
          "name": "dominio cumbres",
          "username": "dominio_cumbres",
          "email": "cumbresDominio@hotmail.com",
          "role": "USER_SUB_MERCHANT_ADMIN",
          "attempts": 3,
          "status": "NONE",
          "enabled": true,
          "activated": true,
          "role_id": 6
        },
        "channel": null,
        "phone": null,
        "tip": null,
        "checkOutDate": null,
        "additionalData": null
      },
      {
        "createdAt": 1761176553823,
        "createdBy": 4,
        "updatedAt": 1761176554413,
        "updatedBy": 4,
        "id": "4110f39b-647e-4fd2-851d-542539d5c43b",
        "operation": "CHECK-IN",
        "aid": "A0000000041010",
        "amount": 3.0,
        "grossTotal": 3.0,
        "subTotal": 3.0,
        "entryMode": "CHIP",
        "arqc": "****D235",
        "authCode": "000000",
        "cardNumber": "****6595",
        "cardIssuerBank": "NU MEXICO",
        "cardIssuerBrand": "MASTERCARD",
        "cardType": "DEBIT",
        "currency": "484",
        "date": 1761176553805,
        "responseMessage": "APROBADA",
        "subMerchantId": 21,
        "merchantId": 20,
        "posId": "WTYG002422000300",
        "cashierId": "4",
        "userId": 4,
        "providerMerchantId": "5432122",
        "originalNumber": "2125102217420033506",
        "posName": "WTYG002422000300",
        "saleType": "CONTADO",
        "clientReference": "2125102217420033506",
        "status": "APPROVED",
        "commission": 0.08,
        "commissionRate": 2.9,
        "commissionMsiRate": null,
        "iva": 0.01,
        "terminalId": "WTYG002422000300",
        "total": 2.89,
        "bin": "510125",
        "cardCountry": "Mexico",
        "commissionMsi": null,
        "subMerchant": {
          "createdAt": 1741674434161,
          "createdBy": 1,
          "updatedAt": 1741674434161,
          "updatedBy": 1,
          "id": 21,
          "merchant": {
            "createdAt": 1741674434149,
            "createdBy": 1,
            "updatedAt": 1751672374735,
            "updatedBy": 1,
            "id": 20,
            "name": "Grupo orsan",
            "amexId": null,
            "enabled": true,
            "activated": true,
            "webhook": "1",
            "webhookEnabled": false,
            "token": null,
            "validateAmount": true,
            "maxAmount": null,
            "urlLogo": "https://github.com/Billysanzem/paymind-docs/raw/main/Grupo_Ethos_Pay-1%20(1).pngz",
            "clientId": null,
            "address": {
              "street": "Av. Lazaro cardenaz 3804 ",
              "state": "Nuevo Leon",
              "phone": "2412345678",
              "comment": null,
              "exteriorNumber": null,
              "interiorNumber": null,
              "neighborhoods": "Cumbres",
              "districts": "Monterrey",
              "locationLatitude": 37.7749,
              "locationLongitude": -122.4194,
              "zipCode": "64930",
              "neighborhood": null,
              "district": null,
              "stateMx": null,
              "merchantId": 20
            },
            "fiscalAccount": {
              "merchantId": 20,
              "account": "JSZ101194HMWESS",
              "ownerName": "Jhon",
              "merchantCategoryCode": 5542,
              "ownerLastName": "Doe",
              "cityName": "Monterrey",
              "stateName": "NUEVO LEON",
              "streetAddress": "Av. Lazaro cardenaz 3804",
              "postalCode": "64930",
              "ownerDateOfBirth": "1994/07/09",
              "businessName": "Gasolinera",
              "ownerMail": "orsan@hotmail.com",
              "merchantCategoryAmex": 0,
              "accountBank": {
                "merchantId": 20,
                "account": "123456789987654322",
                "bankName": "BANK OF CHINA"
              }
            }
          },
          "merchantId": 20,
          "name": "Dominio cumbres",
          "address": {
            "street": "Av. prueba real 7560 ",
            "state": "NUEVO LEON",
            "phone": "12312",
            "comment": "",
            "exteriorNumber": "",
            "interiorNumber": "",
            "neighborhoods": "La primavera ",
            "districts": "Monterrey",
            "locationLatitude": 37.7749,
            "locationLongitude": -122.4194,
            "zipCode": "64830",
            "neighborhood": {
              "id": 1,
              "neighborhoodId": 1,
              "neighborhoodName": "JOSEFA ZOZAYA",
              "district": {
                "id": 1,
                "districtId": 1,
                "districtName": "GARCIA"
              },
              "stateMx": {
                "stateName": "NUEVO LEON",
                "id": 1
              }
            },
            "district": {
              "id": 1,
              "districtId": 1,
              "districtName": "GARCIA"
            },
            "stateMx": {
              "stateName": "NUEVO LEON",
              "id": 1
            },
            "subMerchantId": 21
          },
          "enabled": true,
          "activated": true,
          "idMit": null,
          "contactName": "Jhon Doe",
          "contactEmail": "orsan@hotmail.com",
          "allowWhatsapp": true,
          "billingUr": "https://mifactura.orsan.com.mx/#/login-form\"",
          "maxAmount": 5000.0,
          "billable": true
        },
        "pos": {
          "createdAt": 1752618408329,
          "createdBy": 1,
          "updatedAt": 1753835056044,
          "updatedBy": 1,
          "id": "WTYG002422000300",
          "subMerchantId": 21,
          "modelChip": "n/a",
          "numberChip": "1640/43",
          "chipBrand": "n/a",
          "name": "WTYG002422000300",
          "active": true,
          "encryptionMethod": null
        },
        "user": {
          "createdAt": 1741674571140,
          "createdBy": 2,
          "updatedAt": 1761242150297,
          "updatedBy": 2,
          "id": 4,
          "name": "despachador1",
          "username": "despachador1",
          "email": "despachadores@hotmail.com",
          "role": "USER_SUB_MERCHANT",
          "attempts": 3,
          "status": "NONE",
          "enabled": true,
          "activated": true,
          "role_id": 7
        },
        "channel": null,
        "phone": "",
        "tip": null,
        "checkOutDate": null,
        "additionalData": null
      },
      {
        "createdAt": 1761176534997,
        "createdBy": 4,
        "updatedAt": 1761176535416,
        "updatedBy": 4,
        "id": "961fe7c6-643b-47cc-88d4-8620f9296c3c",
        "operation": "CHECK-IN",
        "aid": "A0000000041010",
        "amount": 48.98,
        "grossTotal": 48.98,
        "subTotal": 48.98,
        "entryMode": "CHIP",
        "arqc": "****5809",
        "authCode": "000000",
        "cardNumber": "****6595",
        "cardIssuerBank": "NU MEXICO",
        "cardIssuerBrand": "MASTERCARD",
        "cardType": "DEBIT",
        "currency": "484",
        "date": 1761176534960,
        "responseMessage": "APROBADA",
        "subMerchantId": 21,
        "merchantId": 20,
        "posId": "WTYG002422000300",
        "cashierId": "4",
        "userId": 4,
        "providerMerchantId": "5432122",
        "originalNumber": "2125102217420014429",
        "posName": "WTYG002422000300",
        "saleType": "CONTADO",
        "clientReference": "2125102217420014429",
        "status": "APPROVED",
        "commission": 1.42,
        "commissionRate": 2.9,
        "commissionMsiRate": null,
        "iva": 0.22,
        "terminalId": "WTYG002422000300",
        "total": 47.33,
        "bin": "510125",
        "cardCountry": "Mexico",
        "commissionMsi": null,
        "subMerchant": {
          "createdAt": 1741674434161,
          "createdBy": 1,
          "updatedAt": 1741674434161,
          "updatedBy": 1,
          "id": 21,
          "merchant": {
            "createdAt": 1741674434149,
            "createdBy": 1,
            "updatedAt": 1751672374735,
            "updatedBy": 1,
            "id": 20,
            "name": "Grupo orsan",
            "amexId": null,
            "enabled": true,
            "activated": true,
            "webhook": "1",
            "webhookEnabled": false,
            "token": null,
            "validateAmount": true,
            "maxAmount": null,
            "urlLogo": "https://github.com/Billysanzem/paymind-docs/raw/main/Grupo_Ethos_Pay-1%20(1).pngz",
            "clientId": null,
            "address": {
              "street": "Av. Lazaro cardenaz 3804 ",
              "state": "Nuevo Leon",
              "phone": "2412345678",
              "comment": null,
              "exteriorNumber": null,
              "interiorNumber": null,
              "neighborhoods": "Cumbres",
              "districts": "Monterrey",
              "locationLatitude": 37.7749,
              "locationLongitude": -122.4194,
              "zipCode": "64930",
              "neighborhood": null,
              "district": null,
              "stateMx": null,
              "merchantId": 20
            },
            "fiscalAccount": {
              "merchantId": 20,
              "account": "JSZ101194HMWESS",
              "ownerName": "Jhon",
              "merchantCategoryCode": 5542,
              "ownerLastName": "Doe",
              "cityName": "Monterrey",
              "stateName": "NUEVO LEON",
              "streetAddress": "Av. Lazaro cardenaz 3804",
              "postalCode": "64930",
              "ownerDateOfBirth": "1994/07/09",
              "businessName": "Gasolinera",
              "ownerMail": "orsan@hotmail.com",
              "merchantCategoryAmex": 0,
              "accountBank": {
                "merchantId": 20,
                "account": "123456789987654322",
                "bankName": "BANK OF CHINA"
              }
            }
          },
          "merchantId": 20,
          "name": "Dominio cumbres",
          "address": {
            "street": "Av. prueba real 7560 ",
            "state": "NUEVO LEON",
            "phone": "12312",
            "comment": "",
            "exteriorNumber": "",
            "interiorNumber": "",
            "neighborhoods": "La primavera ",
            "districts": "Monterrey",
            "locationLatitude": 37.7749,
            "locationLongitude": -122.4194,
            "zipCode": "64830",
            "neighborhood": {
              "id": 1,
              "neighborhoodId": 1,
              "neighborhoodName": "JOSEFA ZOZAYA",
              "district": {
                "id": 1,
                "districtId": 1,
                "districtName": "GARCIA"
              },
              "stateMx": {
                "stateName": "NUEVO LEON",
                "id": 1
              }
            },
            "district": {
              "id": 1,
              "districtId": 1,
              "districtName": "GARCIA"
            },
            "stateMx": {
              "stateName": "NUEVO LEON",
              "id": 1
            },
            "subMerchantId": 21
          },
          "enabled": true,
          "activated": true,
          "idMit": null,
          "contactName": "Jhon Doe",
          "contactEmail": "orsan@hotmail.com",
          "allowWhatsapp": true,
          "billingUr": "https://mifactura.orsan.com.mx/#/login-form\"",
          "maxAmount": 5000.0,
          "billable": true
        },
        "pos": {
          "createdAt": 1752618408329,
          "createdBy": 1,
          "updatedAt": 1753835056044,
          "updatedBy": 1,
          "id": "WTYG002422000300",
          "subMerchantId": 21,
          "modelChip": "n/a",
          "numberChip": "1640/43",
          "chipBrand": "n/a",
          "name": "WTYG002422000300",
          "active": true,
          "encryptionMethod": null
        },
        "user": {
          "createdAt": 1741674571140,
          "createdBy": 2,
          "updatedAt": 1761242150297,
          "updatedBy": 2,
          "id": 4,
          "name": "despachador1",
          "username": "despachador1",
          "email": "despachadores@hotmail.com",
          "role": "USER_SUB_MERCHANT",
          "attempts": 3,
          "status": "NONE",
          "enabled": true,
          "activated": true,
          "role_id": 7
        },
        "channel": null,
        "phone": "",
        "tip": null,
        "checkOutDate": null,
        "additionalData": null
      },
      {
        "createdAt": 1761176522250,
        "createdBy": 4,
        "updatedAt": 1761176522711,
        "updatedBy": 4,
        "id": "7155c221-71f2-43ae-bece-e727de7758fb",
        "operation": "CHECK-IN",
        "aid": "A0000000041010",
        "amount": 48.98,
        "grossTotal": 48.98,
        "subTotal": 48.98,
        "entryMode": "CHIP",
        "arqc": "****5C2B",
        "authCode": "000000",
        "cardNumber": "****6595",
        "cardIssuerBank": "NU MEXICO",
        "cardIssuerBrand": "MASTERCARD",
        "cardType": "DEBIT",
        "currency": "484",
        "date": 1761176522219,
        "responseMessage": "APROBADA",
        "subMerchantId": 21,
        "merchantId": 20,
        "posId": "WTYG002422000300",
        "cashierId": "4",
        "userId": 4,
        "providerMerchantId": "5432122",
        "originalNumber": "2125102217420002228",
        "posName": "WTYG002422000300",
        "saleType": "CONTADO",
        "clientReference": "2125102217420002228",
        "status": "APPROVED",
        "commission": 1.42,
        "commissionRate": 2.9,
        "commissionMsiRate": null,
        "iva": 0.22,
        "terminalId": "WTYG002422000300",
        "total": 47.33,
        "bin": "510125",
        "cardCountry": "Mexico",
        "commissionMsi": null,
        "subMerchant": {
          "createdAt": 1741674434161,
          "createdBy": 1,
          "updatedAt": 1741674434161,
          "updatedBy": 1,
          "id": 21,
          "merchant": {
            "createdAt": 1741674434149,
            "createdBy": 1,
            "updatedAt": 1751672374735,
            "updatedBy": 1,
            "id": 20,
            "name": "Grupo orsan",
            "amexId": null,
            "enabled": true,
            "activated": true,
            "webhook": "1",
            "webhookEnabled": false,
            "token": null,
            "validateAmount": true,
            "maxAmount": null,
            "urlLogo": "https://github.com/Billysanzem/paymind-docs/raw/main/Grupo_Ethos_Pay-1%20(1).pngz",
            "clientId": null,
            "address": {
              "street": "Av. Lazaro cardenaz 3804 ",
              "state": "Nuevo Leon",
              "phone": "2412345678",
              "comment": null,
              "exteriorNumber": null,
              "interiorNumber": null,
              "neighborhoods": "Cumbres",
              "districts": "Monterrey",
              "locationLatitude": 37.7749,
              "locationLongitude": -122.4194,
              "zipCode": "64930",
              "neighborhood": null,
              "district": null,
              "stateMx": null,
              "merchantId": 20
            },
            "fiscalAccount": {
              "merchantId": 20,
              "account": "JSZ101194HMWESS",
              "ownerName": "Jhon",
              "merchantCategoryCode": 5542,
              "ownerLastName": "Doe",
              "cityName": "Monterrey",
              "stateName": "NUEVO LEON",
              "streetAddress": "Av. Lazaro cardenaz 3804",
              "postalCode": "64930",
              "ownerDateOfBirth": "1994/07/09",
              "businessName": "Gasolinera",
              "ownerMail": "orsan@hotmail.com",
              "merchantCategoryAmex": 0,
              "accountBank": {
                "merchantId": 20,
                "account": "123456789987654322",
                "bankName": "BANK OF CHINA"
              }
            }
          },
          "merchantId": 20,
          "name": "Dominio cumbres",
          "address": {
            "street": "Av. prueba real 7560 ",
            "state": "NUEVO LEON",
            "phone": "12312",
            "comment": "",
            "exteriorNumber": "",
            "interiorNumber": "",
            "neighborhoods": "La primavera ",
            "districts": "Monterrey",
            "locationLatitude": 37.7749,
            "locationLongitude": -122.4194,
            "zipCode": "64830",
            "neighborhood": {
              "id": 1,
              "neighborhoodId": 1,
              "neighborhoodName": "JOSEFA ZOZAYA",
              "district": {
                "id": 1,
                "districtId": 1,
                "districtName": "GARCIA"
              },
              "stateMx": {
                "stateName": "NUEVO LEON",
                "id": 1
              }
            },
            "district": {
              "id": 1,
              "districtId": 1,
              "districtName": "GARCIA"
            },
            "stateMx": {
              "stateName": "NUEVO LEON",
              "id": 1
            },
            "subMerchantId": 21
          },
          "enabled": true,
          "activated": true,
          "idMit": null,
          "contactName": "Jhon Doe",
          "contactEmail": "orsan@hotmail.com",
          "allowWhatsapp": true,
          "billingUr": "https://mifactura.orsan.com.mx/#/login-form\"",
          "maxAmount": 5000.0,
          "billable": true
        },
        "pos": {
          "createdAt": 1752618408329,
          "createdBy": 1,
          "updatedAt": 1753835056044,
          "updatedBy": 1,
          "id": "WTYG002422000300",
          "subMerchantId": 21,
          "modelChip": "n/a",
          "numberChip": "1640/43",
          "chipBrand": "n/a",
          "name": "WTYG002422000300",
          "active": true,
          "encryptionMethod": null
        },
        "user": {
          "createdAt": 1741674571140,
          "createdBy": 2,
          "updatedAt": 1761242150297,
          "updatedBy": 2,
          "id": 4,
          "name": "despachador1",
          "username": "despachador1",
          "email": "despachadores@hotmail.com",
          "role": "USER_SUB_MERCHANT",
          "attempts": 3,
          "status": "NONE",
          "enabled": true,
          "activated": true,
          "role_id": 7
        },
        "channel": null,
        "phone": "",
        "tip": null,
        "checkOutDate": null,
        "additionalData": null
      }
    ],
    "pageable": {
      "sort": {
        "empty": false,
        "unsorted": false,
        "sorted": true
      },
      "offset": 0,
      "pageNumber": 0,
      "pageSize": 4,
      "paged": true,
      "unpaged": false
    },
    "totalPages": 74,
    "totalElements": 294,
    "last": false,
    "size": 4,
    "number": 0,
    "sort": {
      "empty": false,
      "unsorted": false,
      "sorted": true
    },
    "numberOfElements": 4,
    "first": true,
    "empty": false
  }
}